{
  "rules": {
    "ban-comma-operator": true,
    "no-invalid-this": true,
    "no-use-before-declare": true,
    "triple-equals": true,
    "eofline": true,
    "indent": [
      "spaces"
    ],
    "max-line-length": [
      true,
      120
    ],
    "no-trailing-whitespace": true,
    "no-misused-new": true,
    "no-non-null-assertion": true,
    "no-redundant-jsdoc": true,
    "no-shadowed-variable": true,
    "no-string-literal": false,
    "no-string-throw": true,
    "no-switch-case-fall-through": true,
    "no-unnecessary-initializer": true,
    "no-unused-expression": true,
    "no-var-keyword": true,
    "object-literal-sort-keys": false,
    "class-name": true,
    "comment-format": [
      true,
      "check-space",
      "check-lowercase"
    ],
    "interface-name": [
      true,
      "always-prefix"
    ],
    "jsdoc-format": true,
    "new-parens": true,
    "no-consecutive-blank-lines": [
      true
    ],
    "one-line": [
      true,
      "check-catch",
      "check-finally",
      "check-else",
      "check-open-brace",
      "check-whitespace"
    ],
    "one-variable-per-declaration": [
      true
    ],
    "quotemark": [
      true,
      "single"
    ],
    "semicolon": [
      true,
      "always",
      "ignore-interfaces"
    ],
    "variable-name": [
      true,
      "ban-keywords",
      "check-format",
      "allow-leading-underscore"
    ],
    "whitespace": [
      true,
      "check-branch",
      "check-decl",
      "check-operator",
      "check-separator",
      "check-rest-spread",
      "check-type",
      "check-typecast",
      "check-type-operator",
      "check-preblock"
    ]
  }
}
